1, 409 
2, 780 
4, 1636 
8, 3120 
16, 6544 
32, 12480 
64, 26176 
128, 49920 
256, 104704 
512, 322560 
1024, 418816 
2048, 798720 
4096, 1677312 
8192, 6709248 
16384, 6709248 
32768, 112984064 
65536, 126091264 
131072, 126091264 
262144, 126091264 
524288, 143130624 
1048576, 214695936 
2097152, 390070272 
