1, 33554432.000000 
1, 33554432.000000 
1, 31580641.882353 
2, 67108864.000000 
2, 67108864.000000 
2, 63161283.764706 
3, 80530636.800000 
3, 80530636.800000 
3, 84769091.368421 
4, 76695844.571429 
4, 82595524.923077 
4, 82595524.923077 
5, 83886080.000000 
5, 83886080.000000 
5, 81344077.575758 
6, 89478485.333333 
6, 80530636.800000 
6, 84769091.368421 
7, 78293674.666667 
7, 85411281.454545 
7, 81697747.478261 
8, 89478485.333333 
8, 82595524.923077 
8, 82595524.923077 
