2, 819.000000 
4, 1488.000000 
8, 3276.000000 
16, 6552.000000 
32, 13104.000000 
64, 23808.000000 
128, 52416.000000 
256, 104832.000000 
512, 209664.000000 
1024, 380928.000000 
2048, 838656.000000 
4096, 1677312.000000 
8192, 3047424.000000 
16384, 165150720.000000 
32768, 165150720.000000 
65536, 178782208.000000 
131072, 195035136.000000 
262144, 178782208.000000 
524288, 195035136.000000 
1048576, 195035136.000000 
2097152, 195035136.000000 
