2, 4194304.000000 
4, 8388608.000000 
8, 16777216.000000 
16, 33554432.000000 
32, 59637760.000000 
64, 102236160.000000 
128, 306708480.000000 
256, 780140544.000000 
512, 1560281088.000000 
1024, 3120562176.000000 
2048, 5721030656.000000 
4096, 12482248704.000000 
8192, 12482248704.000000 
16384, 12482248704.000000 
32768, 12482248704.000000 
